{
  "project_info": {
    "project_number": "219174456368",
    "project_id": "color-memory-44906",
    "storage_bucket": "color-memory-44906.appspot.com"
  },
  "client": [
    {
      "client_info": {
        "mobilesdk_app_id": "1:219174456368:android:7615076f0bfe20669c31f5",
        "android_client_info": {
          "package_name": "com.dut2.colormemory"
        }
      },
      "oauth_client": [
        {
          "client_id": "219174456368-bnteq74u8qdjrh2tdp9ko52emqrm6ucs.apps.googleusercontent.com",
          "client_type": 3
        }
      ],
      "api_key": [
        {
          "current_key": "AIzaSyAfIck_B1WsT5U4eJ_MqehPAmxZS1T7zLM"
        }
      ],
      "services": {
        "appinvite_service": {
          "other_platform_oauth_client": [
            {
              "client_id": "219174456368-bnteq74u8qdjrh2tdp9ko52emqrm6ucs.apps.googleusercontent.com",
              "client_type": 3
            }
          ]
        }
      }
    }
  ],
  "configuration_version": "1"
}